group13_project_report
…
dat = countries_dataset[[1]][[2]]
# Reshape the data to long format
dat_long <- dat %>%
  pivot_longer(cols = c(Men, Women), names_to = "gender", values_to = "participation")
dat_long <- dat_long %>% slice(1:(n() - 2))
# View the reshaped data
print(dat_long)

# A tibble: 36 × 4
   Sport     Total gender participation
   <chr>     <dbl> <chr>          <dbl>
 1 Archery      12 Men                6
 2 Archery      12 Women              6
 3 Athletics    51 Men               20
 4 Athletics    51 Women             31
 5 Badminton    13 Men                5
 6 Badminton    13 Women              8
 7 Boccia        5 Men                3
 8 Boccia        5 Women              2
 9 Cycling       8 Men                4
10 Cycling       8 Women              4
# ℹ 26 more rows
…
